Taek_Blog - Spatial_Info_Analysis Tasu_Data
…
borrow_count %>% head()
#> # A tibble: 6 × 2
#>   대여스테이션 대여스테이션별개수
#>          <int>              <int>
#> 1            1                 54
#> 2            2                 60
#> 3            3                281
#> 4            4                 24
#> 5            5                 53
#> 6            6                 25

5.7 g

borrow_count
#> # A tibble: 254 × 2
#>    대여스테이션 대여스테이션별개수
#>           <int>              <int>
#>  1            1                 54
#>  2            2                 60
#>  3            3                281
#>  4            4                 24
#>  5            5                 53
#>  6            6                 25
#>  7            7                 12
#>  8            8                 67
#>  9           10                 24
#> 10           11                 25
#> # … with 244 more rows
…
join_result_count <- 
join_result %>% group_by(EMD_NM) %>% 
  summarise(행정동별개수 = n())

join_result_count
#> Simple feature collection with 171 features and 2 fields
#> Geometry type: GEOMETRY
#> Dimension:     XY
#> Bounding box:  xmin: 127.2467 ymin: 36.1831 xmax: 127.5597 ymax: 36.50023
#> Geodetic CRS:  +proj=longlat +datum=WGS84 +no_defs
#> # A tibble: 171 × 3
#>    EMD_NM   행정동별개수                                                geometry
#>    <chr>           <int>                                          <GEOMETRY [°]>
#>  1 가수원동            3 POLYGON ((127.3454 36.29102, 127.3454 36.29086, 127.34…
#>  2 가양동              4 MULTIPOLYGON (((127.4366 36.3401, 127.4368 36.3399, 12…
#>  3 가오동              6 POLYGON ((127.468 36.30469, 127.4675 36.30546, 127.466…
#>  4 가장동              2 POLYGON ((127.3816 36.32865, 127.3816 36.32865, 127.38…
#>  5 가정동              4 POLYGON ((127.369 36.38848, 127.3689 36.38849, 127.368…
#>  6 갈마동              5 POLYGON ((127.3625 36.33948, 127.3627 36.3395, 127.362…
#>  7 갈전동              1 POLYGON ((127.4745 36.43743, 127.4742 36.43722, 127.47…
#>  8 갑동                1 POLYGON ((127.2831 36.38286, 127.283 36.38286, 127.282…
#>  9 계산동              1 POLYGON ((127.2804 36.33235, 127.2819 36.33159, 127.28…
#> 10 관저동              8 POLYGON ((127.3141 36.28425, 127.3141 36.28424, 127.31…
#> # … with 161 more rows
…
borrow_count %>% head()
#> # A tibble: 6 × 2
#>   대여스테이션 대여스테이션별개수
#>          <int>              <int>
#> 1            1                 54
#> 2            2                 60
#> 3            3                281
#> 4            4                 24
#> 5            5                 53
#> 6            6                 25

g

borrow_count
#> # A tibble: 254 × 2
#>    대여스테이션 대여스테이션별개수
#>           <int>              <int>
#>  1            1                 54
#>  2            2                 60
#>  3            3                281
#>  4            4                 24
#>  5            5                 53
#>  6            6                 25
#>  7            7                 12
#>  8            8                 67
#>  9           10                 24
#> 10           11                 25
#> # … with 244 more rows
…
join_result_count <- 
join_result %>% group_by(EMD_NM) %>% 
  summarise(행정동별개수 = n())

join_result_count
#> Simple feature collection with 171 features and 2 fields
#> Geometry type: GEOMETRY
#> Dimension:     XY
#> Bounding box:  xmin: 127.2467 ymin: 36.1831 xmax: 127.5597 ymax: 36.50023
#> Geodetic CRS:  +proj=longlat +datum=WGS84 +no_defs
#> # A tibble: 171 × 3
#>    EMD_NM   행정동별개수                                                geometry
#>    <chr>           <int>                                          <GEOMETRY [°]>
#>  1 가수원동            3 POLYGON ((127.3454 36.29102, 127.3454 36.29086, 127.34…
#>  2 가양동              4 MULTIPOLYGON (((127.4366 36.3401, 127.4368 36.3399, 12…
#>  3 가오동              6 POLYGON ((127.468 36.30469, 127.4675 36.30546, 127.466…
#>  4 가장동              2 POLYGON ((127.3816 36.32865, 127.3816 36.32865, 127.38…
#>  5 가정동              4 POLYGON ((127.369 36.38848, 127.3689 36.38849, 127.368…
#>  6 갈마동              5 POLYGON ((127.3625 36.33948, 127.3627 36.3395, 127.362…
#>  7 갈전동              1 POLYGON ((127.4745 36.43743, 127.4742 36.43722, 127.47…
#>  8 갑동                1 POLYGON ((127.2831 36.38286, 127.283 36.38286, 127.282…
#>  9 계산동              1 POLYGON ((127.2804 36.33235, 127.2819 36.33159, 127.28…
#> 10 관저동              8 POLYGON ((127.3141 36.28425, 127.3141 36.28424, 127.31…
#> # … with 161 more rows
…
