Taek_Blog - Data_Visualize_Movie_Data
…
1 데이터 불러오기

1998년 ~ 2023년 4월 국내에서 개봉한 영화

독립/예술 영화가 아닌 일반영화 (해외+국내영화)

1위 ~ 500위

movie <- read_xlsx('C:/Users/seong taek/Desktop/3-1 DataVisualize/data_visualize/역대 박스오피스2.xlsx')
#> New names:
#> • `` -> `...5`
#> • `` -> `...7`
movie
#> # A tibble: 500 × 11
#>     순위 영화이름   개봉일               매출액 ...5  관객수 ...7  스크…¹ 국적 
#>    <dbl> <chr>      <dttm>                <dbl> <chr>  <dbl> <chr>  <dbl> <chr>
#>  1     1 명량       2014-07-30 00:00:00 1.36e11 <NA>  1.76e7 <NA>    1587 한국 
#>  2     2 극한직업   2019-01-23 00:00:00 1.40e11 <NA>  1.63e7 <NA>    1978 한국 
#>  3     3 신과함께-… 2017-12-20 00:00:00 1.16e11 <NA>  1.44e7 <NA>    1912 한국 
#>  4     4 국제시장   2014-12-17 00:00:00 1.11e11 <NA>  1.43e7 <NA>     966 한국 
#>  5     5 어벤져스:… 2019-04-24 00:00:00 1.22e11 <NA>  1.39e7 <NA>    2835 미국 
#>  6     6 겨울왕국 2 2019-11-21 00:00:00 1.15e11 <NA>  1.37e7 <NA>    2648 미국 
#>  7     7 아바타     2009-12-17 00:00:00 1.28e11 <NA>  1.36e7 <NA>     912 미국 
#>  8     8 베테랑     2015-08-05 00:00:00 1.05e11 <NA>  1.34e7 <NA>    1064 한국 
#>  9     9 괴물       2006-07-27 00:00:00 0       <NA>  1.30e7 S        167 한국 
#> 10    10 도둑들     2012-07-25 00:00:00 9.37e10 <NA>  1.30e7 <NA>    1072 한국 
#> # … with 490 more rows, 2 more variables: 국적2 <chr>, 배급사 <chr>, and
#> #   abbreviated variable name ¹​스크린수
…
movie$개봉일 <- movie$개봉일 %>% as.Date()
movie
#> # A tibble: 500 × 8
#>     순위 영화이름           개봉일           매출액  관객수 스크…¹ 국적  배급사
#>    <dbl> <chr>              <date>            <dbl>   <dbl>  <dbl> <chr> <chr> 
#>  1     1 명량               2014-07-30 135748398910  1.76e7   1587 한국  "(주)…
#>  2     2 극한직업           2019-01-23 139647979516  1.63e7   1978 한국  "(주)…
#>  3     3 신과함께-죄와 벌   2017-12-20 115698654137  1.44e7   1912 한국  "롯데…
#>  4     4 국제시장           2014-12-17 110913469630  1.43e7    966 한국  "(주)…
#>  5     5 어벤져스: 엔드게임 2019-04-24 122182694160  1.39e7   2835 미국  "월트…
#>  6     6 겨울왕국 2         2019-11-21 114810421450  1.37e7   2648 미국  "월트…
#>  7     7 아바타             2009-12-17 128447097523  1.36e7    912 미국  "주식…
#>  8     8 베테랑             2015-08-05 105168155250  1.34e7   1064 한국  "(주)…
#>  9     9 괴물               2006-07-27            0  1.30e7    167 한국  "(주)…
#> 10    10 도둑들             2012-07-25  93665568500  1.30e7   1072 한국  "(주)…
#> # … with 490 more rows, and abbreviated variable name ¹​스크린수

6 연도별 통계 시각화

# 관객수 
movie_sum <- movie %>%
  mutate(연도 = lubridate::year(개봉일)) %>%
  group_by(연도) %>%
  summarise(총합 = sum(관객수))

movie_sum
#> # A tibble: 26 × 2
#>     연도     총합
#>    <dbl>    <dbl>
#>  1  1998  1971780
#>  2  1999  8130000
#>  3  2000  2513540
#>  4  2001  2678846
#>  5  2002 16367697
#>  6  2003 64995866
#>  7  2004 62340959
#>  8  2005 85616773
#>  9  2006 82869100
#> 10  2007 74889204
#> # … with 16 more rows
…
# 스크린수
movie_sum2 <- movie %>%
  mutate(연도 = lubridate::year(개봉일)) %>%
  group_by(연도) %>%
  summarise(총합 = sum(스크린수))

movie_sum2
#> # A tibble: 26 × 2
#>     연도  총합
#>    <dbl> <dbl>
#>  1  1998     0
#>  2  1999     0
#>  3  2000     0
#>  4  2001     0
#>  5  2002   280
#>  6  2003  1293
#>  7  2004  1412
#>  8  2005  2070
#>  9  2006  2134
#> 10  2007  2708
#> # … with 16 more rows
…
# 매출액
movie_sum3 <- movie %>%
  mutate(연도 = lubridate::year(개봉일)) %>%
  group_by(연도) %>%
  summarise(총합 = sum(매출액,na.rm = T))

movie_sum3
#> # A tibble: 26 × 2
#>     연도      총합
#>    <dbl>     <dbl>
#>  1  1998         0
#>  2  1999         0
#>  3  2000         0
#>  4  2001         0
#>  5  2002         0
#>  6  2003         0
#>  7  2004         0
#>  8  2005         0
#>  9  2006         0
#> 10  2007 549434500
#> # … with 16 more rows
…
movie %>% group_by(국적)
#> # A tibble: 500 × 8
#> # Groups:   국적 [6]
#>     순위 영화이름           개봉일           매출액  관객수 스크…¹ 국적  배급사
#>    <dbl> <chr>              <date>            <dbl>   <dbl>  <dbl> <chr> <chr> 
#>  1     1 명량               2014-07-30 135748398910  1.76e7   1587 한국  "(주)…
#>  2     2 극한직업           2019-01-23 139647979516  1.63e7   1978 한국  "(주)…
#>  3     3 신과함께-죄와 벌   2017-12-20 115698654137  1.44e7   1912 한국  "롯데…
#>  4     4 국제시장           2014-12-17 110913469630  1.43e7    966 한국  "(주)…
#>  5     5 어벤져스: 엔드게임 2019-04-24 122182694160  1.39e7   2835 미국  "월트…
#>  6     6 겨울왕국 2         2019-11-21 114810421450  1.37e7   2648 미국  "월트…
#>  7     7 아바타             2009-12-17 128447097523  1.36e7    912 미국  "주식…
#>  8     8 베테랑             2015-08-05 105168155250  1.34e7   1064 한국  "(주)…
#>  9     9 괴물               2006-07-27            0  1.30e7    167 한국  "(주)…
#> 10    10 도둑들             2012-07-25  93665568500  1.30e7   1072 한국  "(주)…
#> # … with 490 more rows, and abbreviated variable name ¹​스크린수

datetime <- as.POSIXct(movie$개봉일, format = "%Y-%m-%d %H:%M:%S")
datetime_str <- format(datetime, "%Y-%m-%d")

movie$개봉연도 <-  substr(datetime_str,1,4)
movie
#> # A tibble: 500 × 9
#>     순위 영화이름         개봉일      매출액 관객수 스크…¹ 국적  배급사 개봉연도
#>    <dbl> <chr>            <date>       <dbl>  <dbl>  <dbl> <chr> <chr>  <chr>   
#>  1     1 명량             2014-07-30 1.36e11 1.76e7   1587 한국  "(주)… 2014    
#>  2     2 극한직업         2019-01-23 1.40e11 1.63e7   1978 한국  "(주)… 2019    
#>  3     3 신과함께-죄와 벌 2017-12-20 1.16e11 1.44e7   1912 한국  "롯데… 2017    
#>  4     4 국제시장         2014-12-17 1.11e11 1.43e7    966 한국  "(주)… 2014    
#>  5     5 어벤져스: 엔드…  2019-04-24 1.22e11 1.39e7   2835 미국  "월트… 2019    
#>  6     6 겨울왕국 2       2019-11-21 1.15e11 1.37e7   2648 미국  "월트… 2019    
#>  7     7 아바타           2009-12-17 1.28e11 1.36e7    912 미국  "주식… 2009    
#>  8     8 베테랑           2015-08-05 1.05e11 1.34e7   1064 한국  "(주)… 2015    
#>  9     9 괴물             2006-07-27 0       1.30e7    167 한국  "(주)… 2006    
#> 10    10 도둑들           2012-07-25 9.37e10 1.30e7   1072 한국  "(주)… 2012    
#> # … with 490 more rows, and abbreviated variable name ¹​스크린수

movie_group_year <- 
movie %>% group_by(개봉연도) %>% 
  summarise(관객수총합 = sum(관객수),
            스크린총합 = sum(스크린수))

movie_group_year
#> # A tibble: 26 × 3
#>    개봉연도 관객수총합 스크린총합
#>    <chr>         <dbl>      <dbl>
#>  1 1998        1971780          0
#>  2 1999        8130000          0
#>  3 2000        2513540          0
#>  4 2001        2678846          0
#>  5 2002       16367697        280
#>  6 2003       64995866       1293
#>  7 2004       62340959       1412
#>  8 2005       85616773       2070
#>  9 2006       82869100       2134
#> 10 2007       74889204       2708
#> # … with 16 more rows

7 국적별 국내 개봉 스크린 수

movie
#> # A tibble: 500 × 9
#>     순위 영화이름         개봉일      매출액 관객수 스크…¹ 국적  배급사 개봉연도
#>    <dbl> <chr>            <date>       <dbl>  <dbl>  <dbl> <chr> <chr>  <chr>   
#>  1     1 명량             2014-07-30 1.36e11 1.76e7   1587 한국  "(주)… 2014    
#>  2     2 극한직업         2019-01-23 1.40e11 1.63e7   1978 한국  "(주)… 2019    
#>  3     3 신과함께-죄와 벌 2017-12-20 1.16e11 1.44e7   1912 한국  "롯데… 2017    
#>  4     4 국제시장         2014-12-17 1.11e11 1.43e7    966 한국  "(주)… 2014    
#>  5     5 어벤져스: 엔드…  2019-04-24 1.22e11 1.39e7   2835 미국  "월트… 2019    
#>  6     6 겨울왕국 2       2019-11-21 1.15e11 1.37e7   2648 미국  "월트… 2019    
#>  7     7 아바타           2009-12-17 1.28e11 1.36e7    912 미국  "주식… 2009    
#>  8     8 베테랑           2015-08-05 1.05e11 1.34e7   1064 한국  "(주)… 2015    
#>  9     9 괴물             2006-07-27 0       1.30e7    167 한국  "(주)… 2006    
#> 10    10 도둑들           2012-07-25 9.37e10 1.30e7   1072 한국  "(주)… 2012    
#> # … with 490 more rows, and abbreviated variable name ¹​스크린수

movie5 <- movie %>%
  mutate(year = format(개봉일, "%Y")) %>%   # 일시에서 월만 뽑아낸 month 컬럼 생성
  group_by(국적, year) %>%              # 지점명, month로 그룹화
  summarise(sum = sum(스크린수)) # 그룹화된 데이터의 집계값 요약                            # 그룹화를 해제하여 일반적인 데이터 프레임 형태로 사용
#> `summarise()` has grouped output by '국적'. You can override using the
#> `.groups` argument.
             # month값을 factor 형태로 수정해서 원하는 levels 지정가능 # sep='' : 간격없이 붙이기

movie5$year <- movie5$year %>% format()
movie5$개봉연도 <- substr(movie5$year,3,4)
movie5$개봉연도 <- movie5$개봉연도 %>% as.factor()

movie5
#> # A tibble: 54 × 4
#> # Groups:   국적 [6]
#>    국적  year    sum 개봉연도
#>    <chr> <chr> <dbl> <fct>   
#>  1 미국  1998      0 98      
#>  2 미국  2002    168 02      
#>  3 미국  2003    505 03      
#>  4 미국  2004    532 04      
#>  5 미국  2005    630 05      
#>  6 미국  2006    689 06      
#>  7 미국  2007   1538 07      
#>  8 미국  2008   4945 08      
#>  9 미국  2009   6767 09      
#> 10 미국  2010   6736 10      
#> # … with 44 more rows
…
