Taek_Blog - Spatial_Info_Analysis CH2
…
### 10개의 속성 데이터, 1개의 지리기하 열

dim(world)

[1] 177  11

world

Simple feature collection with 177 features and 10 fields
Geometry type: MULTIPOLYGON
Dimension:     XY
Bounding box:  xmin: -180 ymin: -89.9 xmax: 180 ymax: 83.64513
Geodetic CRS:  WGS 84
# A tibble: 177 × 11
   iso_a2 name_l…¹ conti…² regio…³ subre…⁴ type  area_…⁵     pop lifeExp gdpPe…⁶
 * <chr>  <chr>    <chr>   <chr>   <chr>   <chr>   <dbl>   <dbl>   <dbl>   <dbl>
 1 FJ     Fiji     Oceania Oceania Melane… Sove…  1.93e4  8.86e5    70.0   8222.
 2 TZ     Tanzania Africa  Africa  Easter… Sove…  9.33e5  5.22e7    64.2   2402.
 3 EH     Western… Africa  Africa  Northe… Inde…  9.63e4 NA         NA       NA 
 4 CA     Canada   North … Americ… Northe… Sove…  1.00e7  3.55e7    82.0  43079.
 5 US     United … North … Americ… Northe… Coun…  9.51e6  3.19e8    78.8  51922.
 6 KZ     Kazakhs… Asia    Asia    Centra… Sove…  2.73e6  1.73e7    71.6  23587.
 7 UZ     Uzbekis… Asia    Asia    Centra… Sove…  4.61e5  3.08e7    71.0   5371.
 8 PG     Papua N… Oceania Oceania Melane… Sove…  4.65e5  7.76e6    65.2   3709.
 9 ID     Indones… Asia    Asia    South-… Sove…  1.82e6  2.55e8    68.9  10003.
10 AR     Argenti… South … Americ… South … Sove…  2.78e6  4.30e7    76.3  18798.
# … with 167 more rows, 1 more variable: geom <MULTIPOLYGON [°]>, and
#   abbreviated variable names ¹​name_long, ²​continent, ³​region_un, ⁴​subregion,
#   ⁵​area_km2, ⁶​gdpPercap
…
점, 선, 면 등의 지리기하 데이터를 리스트로 갖는 geom 컬럼 항상 존재

geom 컬럼을 제거하고 나머지 속성 정보만으로 d.f 만들 때 사용

geom 컬럼 : 지리기하 리스트 정보를 가지기때문에 메모리 점유 큼

사용할 필요 없으면 웬만하면 제거하기

### geom 컬럼 제거

world_df = st_drop_geometry(world)

world_df

# A tibble: 177 × 10
   iso_a2 name_l…¹ conti…² regio…³ subre…⁴ type  area_…⁵     pop lifeExp gdpPe…⁶
 * <chr>  <chr>    <chr>   <chr>   <chr>   <chr>   <dbl>   <dbl>   <dbl>   <dbl>
 1 FJ     Fiji     Oceania Oceania Melane… Sove…  1.93e4  8.86e5    70.0   8222.
 2 TZ     Tanzania Africa  Africa  Easter… Sove…  9.33e5  5.22e7    64.2   2402.
 3 EH     Western… Africa  Africa  Northe… Inde…  9.63e4 NA         NA       NA 
 4 CA     Canada   North … Americ… Northe… Sove…  1.00e7  3.55e7    82.0  43079.
 5 US     United … North … Americ… Northe… Coun…  9.51e6  3.19e8    78.8  51922.
 6 KZ     Kazakhs… Asia    Asia    Centra… Sove…  2.73e6  1.73e7    71.6  23587.
 7 UZ     Uzbekis… Asia    Asia    Centra… Sove…  4.61e5  3.08e7    71.0   5371.
 8 PG     Papua N… Oceania Oceania Melane… Sove…  4.65e5  7.76e6    65.2   3709.
 9 ID     Indones… Asia    Asia    South-… Sove…  1.82e6  2.55e8    68.9  10003.
10 AR     Argenti… South … Americ… South … Sove…  2.78e6  4.30e7    76.3  18798.
# … with 167 more rows, and abbreviated variable names ¹​name_long, ²​continent,
#   ³​region_un, ⁴​subregion, ⁵​area_km2, ⁶​gdpPercap
…
### 1열 ~ 3열 정보
world[,1:3]

Simple feature collection with 177 features and 3 fields
Geometry type: MULTIPOLYGON
Dimension:     XY
Bounding box:  xmin: -180 ymin: -89.9 xmax: 180 ymax: 83.64513
Geodetic CRS:  WGS 84
# A tibble: 177 × 4
   iso_a2 name_long        continent                                        geom
   <chr>  <chr>            <chr>                              <MULTIPOLYGON [°]>
 1 FJ     Fiji             Oceania       (((-180 -16.55522, -179.9174 -16.50178…
 2 TZ     Tanzania         Africa        (((33.90371 -0.95, 31.86617 -1.02736, …
 3 EH     Western Sahara   Africa        (((-8.66559 27.65643, -8.817828 27.656…
 4 CA     Canada           North America (((-132.71 54.04001, -133.18 54.16998,…
 5 US     United States    North America (((-171.7317 63.78252, -171.7911 63.40…
 6 KZ     Kazakhstan       Asia          (((87.35997 49.21498, 86.82936 49.8266…
 7 UZ     Uzbekistan       Asia          (((55.96819 41.30864, 57.09639 41.3223…
 8 PG     Papua New Guinea Oceania       (((141.0002 -2.600151, 141.0171 -5.859…
 9 ID     Indonesia        Asia          (((104.37 -1.084843, 104.0108 -1.05921…
10 AR     Argentina        South America (((-68.63401 -52.63637, -68.63335 -54.…
# … with 167 more rows

6.0.2 2. 열이름 사용해서 지리공간 벡터 데이터 열 가져오기

world[, c('name_long', 'lifeExp')]

Simple feature collection with 177 features and 2 fields
Geometry type: MULTIPOLYGON
Dimension:     XY
Bounding box:  xmin: -180 ymin: -89.9 xmax: 180 ymax: 83.64513
Geodetic CRS:  WGS 84
# A tibble: 177 × 3
   name_long        lifeExp                                                 geom
   <chr>              <dbl>                                   <MULTIPOLYGON [°]>
 1 Fiji                70.0 (((-180 -16.55522, -179.9174 -16.50178, -179.7933 -…
 2 Tanzania            64.2 (((33.90371 -0.95, 31.86617 -1.02736, 30.76986 -1.0…
 3 Western Sahara      NA   (((-8.66559 27.65643, -8.817828 27.65643, -8.794884…
 4 Canada              82.0 (((-132.71 54.04001, -133.18 54.16998, -133.2397 53…
 5 United States       78.8 (((-171.7317 63.78252, -171.7911 63.40585, -171.553…
 6 Kazakhstan          71.6 (((87.35997 49.21498, 86.82936 49.82667, 85.54127 4…
 7 Uzbekistan          71.0 (((55.96819 41.30864, 57.09639 41.32231, 56.93222 4…
 8 Papua New Guinea    65.2 (((141.0002 -2.600151, 141.0171 -5.859022, 141.0339…
 9 Indonesia           68.9 (((104.37 -1.084843, 104.0108 -1.059212, 103.4376 -…
10 Argentina           76.3 (((-68.63401 -52.63637, -68.63335 -54.8695, -67.562…
# … with 167 more rows
…
class(world_agg2)

[1] "sf"         "data.frame"

# sf 객체는 집계 결과가 sf 객체로 반환
world['pop']

Simple feature collection with 177 features and 1 field
Geometry type: MULTIPOLYGON
Dimension:     XY
Bounding box:  xmin: -180 ymin: -89.9 xmax: 180 ymax: 83.64513
Geodetic CRS:  WGS 84
# A tibble: 177 × 2
         pop                                                                geom
       <dbl>                                                  <MULTIPOLYGON [°]>
 1    885806 (((-180 -16.55522, -179.9174 -16.50178, -179.7933 -16.02088, -180 …
 2  52234869 (((33.90371 -0.95, 31.86617 -1.02736, 30.76986 -1.01455, 30.4191 -…
 3        NA (((-8.66559 27.65643, -8.817828 27.65643, -8.794884 27.1207, -9.41…
 4  35535348 (((-132.71 54.04001, -133.18 54.16998, -133.2397 53.85108, -133.05…
 5 318622525 (((-171.7317 63.78252, -171.7911 63.40585, -171.5531 63.31779, -17…
 6  17288285 (((87.35997 49.21498, 86.82936 49.82667, 85.54127 49.69286, 85.115…
 7  30757700 (((55.96819 41.30864, 57.09639 41.32231, 56.93222 41.82603, 57.786…
 8   7755785 (((141.0002 -2.600151, 141.0171 -5.859022, 141.0339 -9.117893, 142…
 9 255131116 (((104.37 -1.084843, 104.0108 -1.059212, 103.4376 -0.7119459, 103.…
10  42981515 (((-68.63401 -52.63637, -68.63335 -54.8695, -67.56244 -54.87001, -…
# … with 167 more rows
…
9 두개의 지리 벡터 데이터 테이블 join 하기

### name_long 컬럼 기준으로 join
world_coffee <-  left_join(world, coffee_data) # by='name_long'

Joining with `by = join_by(name_long)`

world_coffee

Simple feature collection with 177 features and 12 fields
Geometry type: MULTIPOLYGON
Dimension:     XY
Bounding box:  xmin: -180 ymin: -89.9 xmax: 180 ymax: 83.64513
Geodetic CRS:  WGS 84
# A tibble: 177 × 13
   iso_a2 name_l…¹ conti…² regio…³ subre…⁴ type  area_…⁵     pop lifeExp gdpPe…⁶
   <chr>  <chr>    <chr>   <chr>   <chr>   <chr>   <dbl>   <dbl>   <dbl>   <dbl>
 1 FJ     Fiji     Oceania Oceania Melane… Sove…  1.93e4  8.86e5    70.0   8222.
 2 TZ     Tanzania Africa  Africa  Easter… Sove…  9.33e5  5.22e7    64.2   2402.
 3 EH     Western… Africa  Africa  Northe… Inde…  9.63e4 NA         NA       NA 
 4 CA     Canada   North … Americ… Northe… Sove…  1.00e7  3.55e7    82.0  43079.
 5 US     United … North … Americ… Northe… Coun…  9.51e6  3.19e8    78.8  51922.
 6 KZ     Kazakhs… Asia    Asia    Centra… Sove…  2.73e6  1.73e7    71.6  23587.
 7 UZ     Uzbekis… Asia    Asia    Centra… Sove…  4.61e5  3.08e7    71.0   5371.
 8 PG     Papua N… Oceania Oceania Melane… Sove…  4.65e5  7.76e6    65.2   3709.
 9 ID     Indones… Asia    Asia    South-… Sove…  1.82e6  2.55e8    68.9  10003.
10 AR     Argenti… South … Americ… South … Sove…  2.78e6  4.30e7    76.3  18798.
# … with 167 more rows, 3 more variables: geom <MULTIPOLYGON [°]>,
#   coffee_production_2016 <int>, coffee_production_2017 <int>, and abbreviated
#   variable names ¹​name_long, ²​continent, ³​region_un, ⁴​subregion, ⁵​area_km2,
#   ⁶​gdpPercap
…
### 두 데이터 셋에 같은 이름의 컬럼이 없는 경우
# coffee_data의 name_long변수 이름을 nm으로 변경
coffee_renamed  <-  rename(coffee_data, nm = name_long)

# by 사용하여 결합 변수를 지정하여 다른이름변수를 기준으로 조인하기
world_coffee2 <- left_join(world, coffee_renamed, by = c(name_long = "nm"))

world_coffee2

Simple feature collection with 177 features and 12 fields
Geometry type: MULTIPOLYGON
Dimension:     XY
Bounding box:  xmin: -180 ymin: -89.9 xmax: 180 ymax: 83.64513
Geodetic CRS:  WGS 84
# A tibble: 177 × 13
   iso_a2 name_l…¹ conti…² regio…³ subre…⁴ type  area_…⁵     pop lifeExp gdpPe…⁶
   <chr>  <chr>    <chr>   <chr>   <chr>   <chr>   <dbl>   <dbl>   <dbl>   <dbl>
 1 FJ     Fiji     Oceania Oceania Melane… Sove…  1.93e4  8.86e5    70.0   8222.
 2 TZ     Tanzania Africa  Africa  Easter… Sove…  9.33e5  5.22e7    64.2   2402.
 3 EH     Western… Africa  Africa  Northe… Inde…  9.63e4 NA         NA       NA 
 4 CA     Canada   North … Americ… Northe… Sove…  1.00e7  3.55e7    82.0  43079.
 5 US     United … North … Americ… Northe… Coun…  9.51e6  3.19e8    78.8  51922.
 6 KZ     Kazakhs… Asia    Asia    Centra… Sove…  2.73e6  1.73e7    71.6  23587.
 7 UZ     Uzbekis… Asia    Asia    Centra… Sove…  4.61e5  3.08e7    71.0   5371.
 8 PG     Papua N… Oceania Oceania Melane… Sove…  4.65e5  7.76e6    65.2   3709.
 9 ID     Indones… Asia    Asia    South-… Sove…  1.82e6  2.55e8    68.9  10003.
10 AR     Argenti… South … Americ… South … Sove…  2.78e6  4.30e7    76.3  18798.
# … with 167 more rows, 3 more variables: geom <MULTIPOLYGON [°]>,
#   coffee_production_2016 <int>, coffee_production_2017 <int>, and abbreviated
#   variable names ¹​name_long, ²​continent, ³​region_un, ⁴​subregion, ⁵​area_km2,
#   ⁶​gdpPercap

### inner_join (left_join과 다른점 : 공통된 값이 있는 행만 살림)
world_coffee_inner <- inner_join(world, coffee_data)

Joining with `by = join_by(name_long)`

world_coffee_inner

Simple feature collection with 45 features and 12 fields
Geometry type: MULTIPOLYGON
Dimension:     XY
Bounding box:  xmin: -117.1278 ymin: -33.76838 xmax: 156.02 ymax: 35.49401
Geodetic CRS:  WGS 84
# A tibble: 45 × 13
   iso_a2 name_long conti…¹ regio…² subre…³ type  area_…⁴    pop lifeExp gdpPe…⁵
   <chr>  <chr>     <chr>   <chr>   <chr>   <chr>   <dbl>  <dbl>   <dbl>   <dbl>
 1 TZ     Tanzania  Africa  Africa  Easter… Sove…  9.33e5 5.22e7    64.2   2402.
 2 PG     Papua Ne… Oceania Oceania Melane… Sove…  4.65e5 7.76e6    65.2   3709.
 3 ID     Indonesia Asia    Asia    South-… Sove…  1.82e6 2.55e8    68.9  10003.
 4 KE     Kenya     Africa  Africa  Easter… Sove…  5.91e5 4.60e7    66.2   2753.
 5 DO     Dominica… North … Americ… Caribb… Sove…  4.82e4 1.04e7    73.5  12663.
 6 TL     Timor-Le… Asia    Asia    South-… Sove…  1.47e4 1.21e6    68.3   6263.
 7 MX     Mexico    North … Americ… Centra… Sove…  1.97e6 1.24e8    76.8  16623.
 8 BR     Brazil    South … Americ… South … Sove…  8.51e6 2.04e8    75.0  15374.
 9 BO     Bolivia   South … Americ… South … Sove…  1.09e6 1.06e7    68.4   6325.
10 PE     Peru      South … Americ… South … Sove…  1.31e6 3.10e7    74.5  11548.
# … with 35 more rows, 3 more variables: geom <MULTIPOLYGON [°]>,
#   coffee_production_2016 <int>, coffee_production_2017 <int>, and abbreviated
#   variable names ¹​continent, ²​region_un, ³​subregion, ⁴​area_km2, ⁵​gdpPercap
…
### tidyr로 기존 속성 합치거나 분리하기

### unite()
# con_reg : continent + region_un 합치고 ':' 로 분리, 합쳐진 열들 remove
world_unite <-  world %>%
  unite("con_reg", continent:region_un, sep = ":", remove = TRUE)

world_unite

Simple feature collection with 177 features and 9 fields
Geometry type: MULTIPOLYGON
Dimension:     XY
Bounding box:  xmin: -180 ymin: -89.9 xmax: 180 ymax: 83.64513
Geodetic CRS:  WGS 84
# A tibble: 177 × 10
   iso_a2 name_long        con_reg subre…¹ type  area_…²     pop lifeExp gdpPe…³
   <chr>  <chr>            <chr>   <chr>   <chr>   <dbl>   <dbl>   <dbl>   <dbl>
 1 FJ     Fiji             Oceani… Melane… Sove…  1.93e4  8.86e5    70.0   8222.
 2 TZ     Tanzania         Africa… Easter… Sove…  9.33e5  5.22e7    64.2   2402.
 3 EH     Western Sahara   Africa… Northe… Inde…  9.63e4 NA         NA       NA 
 4 CA     Canada           North … Northe… Sove…  1.00e7  3.55e7    82.0  43079.
 5 US     United States    North … Northe… Coun…  9.51e6  3.19e8    78.8  51922.
 6 KZ     Kazakhstan       Asia:A… Centra… Sove…  2.73e6  1.73e7    71.6  23587.
 7 UZ     Uzbekistan       Asia:A… Centra… Sove…  4.61e5  3.08e7    71.0   5371.
 8 PG     Papua New Guinea Oceani… Melane… Sove…  4.65e5  7.76e6    65.2   3709.
 9 ID     Indonesia        Asia:A… South-… Sove…  1.82e6  2.55e8    68.9  10003.
10 AR     Argentina        South … South … Sove…  2.78e6  4.30e7    76.3  18798.
# … with 167 more rows, 1 more variable: geom <MULTIPOLYGON [°]>, and
#   abbreviated variable names ¹​subregion, ²​area_km2, ³​gdpPercap

# 합쳐진 열들 제거X
world_unite2 <-  world %>%
  unite("con_reg", continent:region_un, sep = ":", remove = FALSE)

world_unite2

Simple feature collection with 177 features and 11 fields
Geometry type: MULTIPOLYGON
Dimension:     XY
Bounding box:  xmin: -180 ymin: -89.9 xmax: 180 ymax: 83.64513
Geodetic CRS:  WGS 84
# A tibble: 177 × 12
   iso_a2 name_l…¹ con_reg conti…² regio…³ subre…⁴ type  area_…⁵     pop lifeExp
   <chr>  <chr>    <chr>   <chr>   <chr>   <chr>   <chr>   <dbl>   <dbl>   <dbl>
 1 FJ     Fiji     Oceani… Oceania Oceania Melane… Sove…  1.93e4  8.86e5    70.0
 2 TZ     Tanzania Africa… Africa  Africa  Easter… Sove…  9.33e5  5.22e7    64.2
 3 EH     Western… Africa… Africa  Africa  Northe… Inde…  9.63e4 NA         NA  
 4 CA     Canada   North … North … Americ… Northe… Sove…  1.00e7  3.55e7    82.0
 5 US     United … North … North … Americ… Northe… Coun…  9.51e6  3.19e8    78.8
 6 KZ     Kazakhs… Asia:A… Asia    Asia    Centra… Sove…  2.73e6  1.73e7    71.6
 7 UZ     Uzbekis… Asia:A… Asia    Asia    Centra… Sove…  4.61e5  3.08e7    71.0
 8 PG     Papua N… Oceani… Oceania Oceania Melane… Sove…  4.65e5  7.76e6    65.2
 9 ID     Indones… Asia:A… Asia    Asia    South-… Sove…  1.82e6  2.55e8    68.9
10 AR     Argenti… South … South … Americ… South … Sove…  2.78e6  4.30e7    76.3
# … with 167 more rows, 2 more variables: gdpPercap <dbl>,
#   geom <MULTIPOLYGON [°]>, and abbreviated variable names ¹​name_long,
#   ²​continent, ³​region_un, ⁴​subregion, ⁵​area_km2

### separate()
# con_reg를 continent, region_un로 분리
world_separate <-  world_unite %>% 
  separate(con_reg, c("continent", "region_un"), sep = ':')

world_separate

Simple feature collection with 177 features and 10 fields
Geometry type: MULTIPOLYGON
Dimension:     XY
Bounding box:  xmin: -180 ymin: -89.9 xmax: 180 ymax: 83.64513
Geodetic CRS:  WGS 84
# A tibble: 177 × 11
   iso_a2 name_l…¹ conti…² regio…³ subre…⁴ type  area_…⁵     pop lifeExp gdpPe…⁶
   <chr>  <chr>    <chr>   <chr>   <chr>   <chr>   <dbl>   <dbl>   <dbl>   <dbl>
 1 FJ     Fiji     Oceania Oceania Melane… Sove…  1.93e4  8.86e5    70.0   8222.
 2 TZ     Tanzania Africa  Africa  Easter… Sove…  9.33e5  5.22e7    64.2   2402.
 3 EH     Western… Africa  Africa  Northe… Inde…  9.63e4 NA         NA       NA 
 4 CA     Canada   North … Americ… Northe… Sove…  1.00e7  3.55e7    82.0  43079.
 5 US     United … North … Americ… Northe… Coun…  9.51e6  3.19e8    78.8  51922.
 6 KZ     Kazakhs… Asia    Asia    Centra… Sove…  2.73e6  1.73e7    71.6  23587.
 7 UZ     Uzbekis… Asia    Asia    Centra… Sove…  4.61e5  3.08e7    71.0   5371.
 8 PG     Papua N… Oceania Oceania Melane… Sove…  4.65e5  7.76e6    65.2   3709.
 9 ID     Indones… Asia    Asia    South-… Sove…  1.82e6  2.55e8    68.9  10003.
10 AR     Argenti… South … Americ… South … Sove…  2.78e6  4.30e7    76.3  18798.
# … with 167 more rows, 1 more variable: geom <MULTIPOLYGON [°]>, and
#   abbreviated variable names ¹​name_long, ²​continent, ³​region_un, ⁴​subregion,
#   ⁵​area_km2, ⁶​gdpPercap

### 데이터 속성 이름 바꾸기
# rename(x:new = y:old)
world %>% rename(name = name_long)

Simple feature collection with 177 features and 10 fields
Geometry type: MULTIPOLYGON
Dimension:     XY
Bounding box:  xmin: -180 ymin: -89.9 xmax: 180 ymax: 83.64513
Geodetic CRS:  WGS 84
# A tibble: 177 × 11
   iso_a2 name     conti…¹ regio…² subre…³ type  area_…⁴     pop lifeExp gdpPe…⁵
   <chr>  <chr>    <chr>   <chr>   <chr>   <chr>   <dbl>   <dbl>   <dbl>   <dbl>
 1 FJ     Fiji     Oceania Oceania Melane… Sove…  1.93e4  8.86e5    70.0   8222.
 2 TZ     Tanzania Africa  Africa  Easter… Sove…  9.33e5  5.22e7    64.2   2402.
 3 EH     Western… Africa  Africa  Northe… Inde…  9.63e4 NA         NA       NA 
 4 CA     Canada   North … Americ… Northe… Sove…  1.00e7  3.55e7    82.0  43079.
 5 US     United … North … Americ… Northe… Coun…  9.51e6  3.19e8    78.8  51922.
 6 KZ     Kazakhs… Asia    Asia    Centra… Sove…  2.73e6  1.73e7    71.6  23587.
 7 UZ     Uzbekis… Asia    Asia    Centra… Sove…  4.61e5  3.08e7    71.0   5371.
 8 PG     Papua N… Oceania Oceania Melane… Sove…  4.65e5  7.76e6    65.2   3709.
 9 ID     Indones… Asia    Asia    South-… Sove…  1.82e6  2.55e8    68.9  10003.
10 AR     Argenti… South … Americ… South … Sove…  2.78e6  4.30e7    76.3  18798.
# … with 167 more rows, 1 more variable: geom <MULTIPOLYGON [°]>, and
#   abbreviated variable names ¹​continent, ²​region_un, ³​subregion, ⁴​area_km2,
#   ⁵​gdpPercap

world

Simple feature collection with 177 features and 10 fields
Geometry type: MULTIPOLYGON
Dimension:     XY
Bounding box:  xmin: -180 ymin: -89.9 xmax: 180 ymax: 83.64513
Geodetic CRS:  WGS 84
# A tibble: 177 × 11
   iso_a2 name_l…¹ conti…² regio…³ subre…⁴ type  area_…⁵     pop lifeExp gdpPe…⁶
 * <chr>  <chr>    <chr>   <chr>   <chr>   <chr>   <dbl>   <dbl>   <dbl>   <dbl>
 1 FJ     Fiji     Oceania Oceania Melane… Sove…  1.93e4  8.86e5    70.0   8222.
 2 TZ     Tanzania Africa  Africa  Easter… Sove…  9.33e5  5.22e7    64.2   2402.
 3 EH     Western… Africa  Africa  Northe… Inde…  9.63e4 NA         NA       NA 
 4 CA     Canada   North … Americ… Northe… Sove…  1.00e7  3.55e7    82.0  43079.
 5 US     United … North … Americ… Northe… Coun…  9.51e6  3.19e8    78.8  51922.
 6 KZ     Kazakhs… Asia    Asia    Centra… Sove…  2.73e6  1.73e7    71.6  23587.
 7 UZ     Uzbekis… Asia    Asia    Centra… Sove…  4.61e5  3.08e7    71.0   5371.
 8 PG     Papua N… Oceania Oceania Melane… Sove…  4.65e5  7.76e6    65.2   3709.
 9 ID     Indones… Asia    Asia    South-… Sove…  1.82e6  2.55e8    68.9  10003.
10 AR     Argenti… South … Americ… South … Sove…  2.78e6  4.30e7    76.3  18798.
# … with 167 more rows, 1 more variable: geom <MULTIPOLYGON [°]>, and
#   abbreviated variable names ¹​name_long, ²​continent, ³​region_un, ⁴​subregion,
#   ⁵​area_km2, ⁶​gdpPercap
…
