Taek_Blog - Opendata_Analysis CH3
…
read.csv와 다르게 문자열 factor 처리X

### 현재 경로 확인
getwd()

[1] "G:/내 드라이브/taek_blog/posts/Opendata_Analysis Ch3"

### 경로 설정
#setwd()

### csv파일 불러오기
heights <- read_csv("heights.csv")
heights

# A tibble: 1,192 × 6
    earn height sex       ed   age race    
   <dbl>  <dbl> <chr>  <dbl> <dbl> <chr>   
 1 50000   74.4 male      16    45 white   
 2 60000   65.5 female    16    58 white   
 3 30000   63.6 female    16    29 white   
 4 50000   63.1 female    16    91 other   
 5 51000   63.4 female    17    39 white   
 6  9000   64.4 female    15    26 white   
 7 29000   61.7 female    12    49 white   
 8 32000   72.7 male      17    46 white   
 9  2000   72.0 male      15    21 hispanic
10 27000   72.2 male      12    26 white   
# … with 1,182 more rows

### 절대경로 사용
heights <- read_csv("C:/Users/seong taek/Desktop/3-1 Opendata_Analysis/opendata/heights.csv")
heights

# A tibble: 1,192 × 6
    earn height sex       ed   age race    
   <dbl>  <dbl> <chr>  <dbl> <dbl> <chr>   
 1 50000   74.4 male      16    45 white   
 2 60000   65.5 female    16    58 white   
 3 30000   63.6 female    16    29 white   
 4 50000   63.1 female    16    91 other   
 5 51000   63.4 female    17    39 white   
 6  9000   64.4 female    15    26 white   
 7 29000   61.7 female    12    49 white   
 8 32000   72.7 male      17    46 white   
 9  2000   72.0 male      15    21 hispanic
10 27000   72.2 male      12    26 white   
# … with 1,182 more rows
…
# A tibble: 3 × 2
  encoding     confidence
  <chr>             <dbl>
1 UTF-8              1   
2 windows-1255       0.38
3 windows-1255       0.29

3 Write Data

3.1 파일 저장/삭제

heights <- read_csv("heights.csv")
heights

# A tibble: 1,192 × 6
    earn height sex       ed   age race    
   <dbl>  <dbl> <chr>  <dbl> <dbl> <chr>   
 1 50000   74.4 male      16    45 white   
 2 60000   65.5 female    16    58 white   
 3 30000   63.6 female    16    29 white   
 4 50000   63.1 female    16    91 other   
 5 51000   63.4 female    17    39 white   
 6  9000   64.4 female    15    26 white   
 7 29000   61.7 female    12    49 white   
 8 32000   72.7 male      17    46 white   
 9  2000   72.0 male      15    21 hispanic
10 27000   72.2 male      12    26 white   
# … with 1,182 more rows

### 현재 경로에 csv파일 저장
write_csv(heights, "만들 파일 이름.csv")

### rds 확장자 
write_rds(heights, "만들 파일 이름.rds")
read_rds("만들 파일 이름.rds")

# A tibble: 1,192 × 6
    earn height sex       ed   age race    
   <dbl>  <dbl> <chr>  <dbl> <dbl> <chr>   
 1 50000   74.4 male      16    45 white   
 2 60000   65.5 female    16    58 white   
 3 30000   63.6 female    16    29 white   
 4 50000   63.1 female    16    91 other   
 5 51000   63.4 female    17    39 white   
 6  9000   64.4 female    15    26 white   
 7 29000   61.7 female    12    49 white   
 8 32000   72.7 male      17    46 white   
 9  2000   72.0 male      15    21 hispanic
10 27000   72.2 male      12    26 white   
# … with 1,182 more rows

### 파일 삭제
file.remove("만들 파일 이름.csv")

[1] TRUE

3.2 feather 패키지

#install.packages("feather")
library(feather)

write_feather(heights, "heights.feather")
read_feather("heights.feather")

# A tibble: 1,192 × 6
    earn height sex       ed   age race    
   <dbl>  <dbl> <chr>  <dbl> <dbl> <chr>   
 1 50000   74.4 male      16    45 white   
 2 60000   65.5 female    16    58 white   
 3 30000   63.6 female    16    29 white   
 4 50000   63.1 female    16    91 other   
 5 51000   63.4 female    17    39 white   
 6  9000   64.4 female    15    26 white   
 7 29000   61.7 female    12    49 white   
 8 32000   72.7 male      17    46 white   
 9  2000   72.0 male      15    21 hispanic
10 27000   72.2 male      12    26 white   
# … with 1,182 more rows
…
