Taek_Blog - Data_Visualize CH2
…
temps_long %>% names()
#> [1] "station_id"  "month"       "day"         "temperature" "flag"       
#> [6] "date"        "location"

mean_temps <- temps_long %>%              
  group_by(location, month) %>%           # location, month로 그룹화 
  summarise(mean = mean(temperature)) %>% # 그룹화된 데이터의 집계값 요약
  ungroup() %>%                           # 그룹화를 해제하여 일반적인 데이터 프레임 형태로 사용
  mutate(month = factor(month %>%         # month값을 factor 형태로 수정해서 원하는 levels 지정가능
                          paste(), levels = 1:12 %>% paste())) 
#> `summarise()` has grouped output by 'location'. You can override using the
#> `.groups` argument.

mean_temps
#> # A tibble: 48 × 3
#>    location month  mean
#>    <chr>    <fct> <dbl>
#>  1 Chicago  1      24.8
#>  2 Chicago  2      28.9
#>  3 Chicago  3      38.8
#>  4 Chicago  4      50.4
#>  5 Chicago  5      60.9
#>  6 Chicago  6      71.0
#>  7 Chicago  7      75.8
#>  8 Chicago  8      74.1
#>  9 Chicago  9      66.4
#> 10 Chicago  10     54.3
#> # … with 38 more rows
…
data_2021_month <- data_2021 %>%
  mutate(month = format(일시, '%B')) %>%   # 일시에서 월만 뽑아낸 month 컬럼 생성
  group_by(지점명, month) %>%              # 지점명, month로 그룹화
  summarise(mean = mean(평균기온..C.)) %>% # 그룹화된 데이터의 집계값 요약
  ungroup() %>%                            # 그룹화를 해제하여 일반적인 데이터 프레임 형태로 사용
  mutate(month = factor(month,             # month값을 factor 형태로 수정해서 원하는 levels 지정가능
                        levels = paste(1:12, '월',sep = ''))) # sep='' : 간격없이 붙이기
#> `summarise()` has grouped output by '지점명'. You can override using the
#> `.groups` argument.

data_2021_month
#> # A tibble: 48 × 3
#>    지점명 month   mean
#>    <chr>  <fct>  <dbl>
#>  1 대전   10월  15.7  
#>  2 대전   11월   8.91 
#>  3 대전   12월   1.89 
#>  4 대전   1월   -0.984
#>  5 대전   2월    3.99 
#>  6 대전   3월    9.61 
#>  7 대전   4월   14.7  
#>  8 대전   5월   17.7  
#>  9 대전   6월   23.5  
#> 10 대전   7월   27.8  
#> # … with 38 more rows
…
data_2022_month <- data_2022 %>%
  mutate(month = format(일시, '%B')) %>%   # 일시에서 월만 뽑아낸 month 컬럼 생성
  group_by(지점명, month) %>%              # 지점명, month로 그룹화
  summarise(mean = mean(평균기온..C.)) %>% # 그룹화된 데이터의 집계값 요약
  ungroup() %>%                            # 그룹화를 해제하여 일반적인 데이터 프레임 형태로 사용
  mutate(month = factor(month,             # month값을 factor 형태로 수정해서 원하는 levels 지정가능
                        levels = paste(1:12, '월',sep = ''))) # sep='' : 간격없이 붙이기
#> `summarise()` has grouped output by '지점명'. You can override using the
#> `.groups` argument.

data_2022_month
#> # A tibble: 84 × 3
#>    지점명 month  mean
#>    <chr>  <fct> <dbl>
#>  1 고산   10월  18.0 
#>  2 고산   11월  15.5 
#>  3 고산   12월   7.28
#>  4 고산   1월    6.08
#>  5 고산   2월    5.24
#>  6 고산   3월   10.8 
#>  7 고산   4월   14.8 
#>  8 고산   5월   18.1 
#>  9 고산   6월   22.1 
#> 10 고산   7월   27.0 
#> # … with 74 more rows
…
